ch01/waves/decoder_224.vcd
$date
	Wed Mar 25 20:45:06 2026
$end
$version
	Icarus Verilog
$end
$timescale
	1s
$end
$scope module decoder_224_tb $end
$var wire 4 ! code [3:0] $end
$var reg 1 " en $end
$var reg 2 # in [1:0] $end
$var integer 32 $ i [31:0] $end
$scope module dut $end
$var wire 1 " en $end
$var wire 2 % in [1:0] $end
$var wire 4 & code [3:0] $end
$upscope $end
$upscope $end
$enddefinitions $end
$comment Show the parameter values. $end
$dumpall
$end
#10
$dumpvars
b0 &
b0 %
b0 $
b0 #
0"
b0 !
$end
#20
b1 !
b1 &
1"
b1 $
#30
b0 !
b0 &
b1 #
b1 %
0"
b10 $
#40
b10 !
b10 &
1"
b11 $
#50
b0 !
b0 &
b10 #
b10 %
0"
b100 $
#60
b100 !
b100 &
1"
b101 $
#70
b0 !
b0 &
b11 #
b11 %
0"
b110 $
#80
b1000 !
b1000 &
1"
b111 $
#90
b1000 $
